Stat 4604: Lab 4
…
As usual, packages can be installed using install.packages("package-name") and only needs to be done once per device.

theme_set(theme_bw())

We will be plotting with the ggplot2 package later. theme_set(theme_bw()) sets a plotting theme.

Read in the data

migraine <- read_csv("./data/Pdata.csv")

migraine

# A tibble: 50 x 3
       N   Trt   sBMI
   <dbl> <dbl>  <dbl>
 1     6     0  0.266
 2    16     0 -0.925
 3    11     0 -0.230
 4     1     0 -1.99 
 5    33     0  0.580
 6    14     0  1.29 
 7     9     0 -0.513
 8    13     0 -0.271
 9     6     0 -1.25 
10    20     0 -0.167
# ... with 40 more rows
…
  as_tibble(out)
}

We coerce our results into a nice tibble before returning it. Note that this function is general enough that in addition to glm support, it will also supports models of class lm.

Test our function

set.seed(99)

boot_coefs <- bootstrap_glm(migraine, model, n=5000)

boot_coefs

# A tibble: 5,000 x 3
   `(Intercept)`    Trt   sBMI
           <dbl>  <dbl>  <dbl>
 1          2.23 -0.205 0.219 
 2          2.66 -0.703 0.184 
 3          2.83 -0.885 0.116 
 4          2.41 -0.292 0.202 
 5          2.38 -0.356 0.184 
 6          2.65 -0.586 0.0927
 7          2.61 -0.551 0.114 
 8          2.64 -0.752 0.146 
 9          2.59 -1.03  0.211 
10          2.56 -0.624 0.202 
# ... with 4,990 more rows
…
Reload results from the parametric bootstrap

para_boot_coefs <- read_rds("./data/para_boot_coefs.rds")

para_boot_coefs

# A tibble: 5,000 x 3
   `(Intercept)`    Trt   sBMI
           <dbl>  <dbl>  <dbl>
 1          2.50 -0.478 0.170 
 2          2.51 -0.419 0.0961
 3          2.64 -0.746 0.126 
 4          2.63 -0.564 0.160 
 5          2.55 -0.725 0.0564
 6          2.56 -0.540 0.0817
 7          2.62 -0.484 0.0844
 8          2.53 -0.365 0.122 
 9          2.43 -0.307 0.120 
10          2.54 -0.574 0.183 
# ... with 4,990 more rows
…
